<?xml version="1.0" encoding="UTF-8"?>
<svg width="52px" height="55px" viewBox="0 0 52 55" version="1.1" xmlns="http://www.w3.org/2000/svg" xmlns:xlink="http://www.w3.org/1999/xlink">
    <!-- Generator: sketchtool 49.1 (51147) - http://www.bohemiancoding.com/sketch -->
    <title>91AA2665-7D4B-4B55-8372-A7B2F5FBCDB0</title>
    <desc>Created with sketchtool.</desc>
    <defs></defs>
    <g id="Page-1" stroke="none" stroke-width="1" fill="none" fill-rule="evenodd">
        <g id="Desktop-MyQuestions-01b-Landing-Empty-State" transform="translate(-882.000000, -543.000000)">
            <g id="HIW" transform="translate(0.000000, 371.000000)">
                <g id="Group-4-Copy-2" transform="translate(784.000000, 173.000000)">
                    <g id="hiw-icon3" transform="translate(99.000000, 0.000000)">
                        <path d="M36.8363636,26.2318182 C29.6585227,26.2318182 23.8147727,32.0710227 23.8147727,39.2534091 C23.8169943,46.4335227 29.6585227,52.2727262 36.8363636,52.2727262 C44.0142045,52.2727262 49.8579545,46.4335227 49.8579545,39.2511364 C49.8579545,32.0710227 44.0142045,26.2318182 36.8363636,26.2318182 Z M36.8363636,49.904546 C30.9636364,49.904546 26.1829545,45.1238068 26.1829545,39.2511364 C26.1829545,33.3784091 30.9636932,28.5977273 36.8363636,28.5977273 C42.7090909,28.5977273 47.4897727,33.3784659 47.4897727,39.2511364 C47.4897727,45.1261364 42.71125,49.904546 36.8363636,49.904546 Z" id="Fill-1" stroke="#7350E1" stroke-width="0.3" fill="#7350E1"></path>
                        <path d="M41.9857467,34.223415 C41.4497216,33.8289506 40.7082799,33.9734123 40.3250398,34.5261884 L35.7387634,41.27188 L33.0310446,38.4838057 C32.5713268,38.0106238 31.8048467,38.0106238 31.3447883,38.4838057 C30.8850706,38.9569877 30.8850706,39.7459165 31.3447883,40.2190984 L35.0494423,44.0322541 C35.279727,44.2692834 35.5859783,44.3870968 35.8927407,44.3870968 L35.9053451,44.3870968 L36.0204874,44.3870968 C36.3524585,44.3609745 36.6718252,44.1767158 36.8891649,43.8741178 L42.2933608,35.9322348 C42.6633152,35.3677124 42.5219422,34.6049059 41.9857467,34.223415" id="Path" fill="#27CCC0"></path>
                        <path d="M3.69318182,51.0409097 C3.04289773,51.0409097 2.51022727,50.5104608 2.51022727,49.8579551 L2.51022727,8.28522727 C2.51022727,7.63272727 3.04289773,7.10227273 3.69318182,7.10227273 L9.6125,7.10227273 L9.6125,8.28522727 C9.6125,8.93994318 10.1429489,9.47039773 10.7954545,9.47039773 L32.1022727,9.47039773 C32.7547727,9.47039773 33.2852273,8.93994886 33.2852273,8.28744318 L33.2852273,7.10227273 L39.2045455,7.10227273 C39.8548295,7.10227273 40.3875,7.63272159 40.3875,8.28522727 L40.3875,23.8147727 C40.3875,24.4672727 40.9179489,24.9977273 41.5704545,24.9977273 C42.2229545,24.9977273 42.7534091,24.4672784 42.7534091,23.8147727 L42.7534091,8.28522727 C42.7556307,6.32767045 41.1620455,4.73409091 39.2044886,4.73409091 L33.0675568,4.73409091 C32.5770568,3.36022727 31.2764773,2.368125 29.7339205,2.368125 L25.5347159,2.368125 C24.6957386,0.923238636 23.1465909,-5.68181818e-05 21.4486932,-5.68181818e-05 C19.7507955,-5.68181818e-05 18.2016477,0.923238636 17.3626705,2.368125 L13.1634659,2.368125 C11.6209659,2.368125 10.3203409,3.36022727 9.82982955,4.73409091 L3.69289773,4.73409091 C1.73534148,4.73409091 0.141761932,6.32767045 0.141761932,8.28522727 L0.141761932,49.8579551 C0.141761932,51.8155119 1.73534148,53.4090909 3.69289773,53.4090909 L26.1826705,53.4090909 C26.8351705,53.4090909 27.365625,52.8786424 27.365625,52.2261369 C27.3678466,51.571421 26.837392,51.0409665 26.1826705,51.0409665 L3.69318182,51.0409097 Z M13.1636364,4.73409091 L18.1107955,4.73409091 C18.612392,4.73409091 19.0607386,4.41892614 19.2249432,3.94840909 C19.5645227,3.00511364 20.4567614,2.36818182 21.4466477,2.36818182 C22.4365341,2.36818182 23.32875,3.00517045 23.6683523,3.95068182 C23.8348125,4.41898864 24.2809091,4.73414773 24.7825,4.73414773 L29.7340909,4.73414773 C30.384375,4.73414773 30.9170455,5.26459659 30.9170455,5.91710227 L30.919267,7.10227273 L11.9806307,7.10227273 L11.9784091,5.91931818 C11.9784091,5.26460227 12.5110795,4.73414773 13.1635795,4.73414773 L13.1636364,4.73409091 Z" id="Fill-3" stroke="#7350E1" stroke-width="0.3" fill="#7350E1"></path>
                    </g>
                </g>
            </g>
        </g>
    </g>
</svg>