<?xml version="1.0" encoding="UTF-8"?>
<svg width="52px" height="53px" viewBox="0 0 52 53" version="1.1" xmlns="http://www.w3.org/2000/svg" xmlns:xlink="http://www.w3.org/1999/xlink">
    <!-- Generator: sketchtool 49.1 (51147) - http://www.bohemiancoding.com/sketch -->
    <title>26130363-2DBB-43C1-8FDD-CC0778B28D9B</title>
    <desc>Created with sketchtool.</desc>
    <defs>
        <path d="M2.50834397,51 L2.65973615,51 L16.4896042,48.5646136 C19.2265487,49.5548457 22.1118305,50.0871107 25,50.0871107 C38.7561554,50.0871107 50,38.8975182 50,25.0435557 C50,11.2634343 38.8298681,5.93683921e-07 25,5.93683921e-07 C11.1701319,-0.00297588818 0,11.1865482 0,25.0412719 C0,28.163609 0.608532434,31.2829011 1.67122621,34.1762546 C2.58252781,36.611641 3.95100006,38.8210888 5.62222628,40.8758509 L1.74539486,49.9331863 C1.74539486,50.1621546 1.74539486,50.4684354 1.89975074,50.6974037 C2.05120372,50.8483441 2.27977385,51 2.50834397,51 Z M7.29352848,41.0265477 C7.37070643,40.7975793 7.37070643,40.4169551 7.1421363,40.2652991 C5.39370174,38.210537 4.10243784,36.0010892 3.1139279,33.6430457 C2.05124932,30.9013329 1.51687033,28.0110243 1.51687033,25.1178231 C1.51687033,12.1765976 12.0783026,1.59676512 24.9970211,1.59676512 C37.9157396,1.59676512 48.4771719,12.1765976 48.4771719,25.1178231 C48.4801432,38.0590486 37.9180193,48.5650399 24.9993009,48.5650399 C22.1881877,48.5650399 19.4512432,48.0327597 16.8688674,47.1198856 C16.7174752,47.0425732 16.6402973,47.0425732 16.4889051,47.1198856 L3.79892395,49.3262885 L7.29352848,41.0265477 Z" id="path-1"></path>
    </defs>
    <g id="Page-1" stroke="none" stroke-width="1" fill="none" fill-rule="evenodd">
        <g id="Desktop-MyQuestions-01b-Landing-Empty-State" transform="translate(-582.000000, -544.000000)">
            <g id="HIW" transform="translate(0.000000, 371.000000)">
                <g id="Group-4-Copy" transform="translate(481.000000, 174.000000)">
                    <g id="hiw-icon2" transform="translate(102.000000, 0.000000)">
                        <g id="Fill-1">
                            <use fill="#7350E1" fill-rule="evenodd" xlink:href="#path-1"></use>
                            <path stroke="#7350E1" stroke-width="0.7" d="M5.21753848,40.9318594 C3.49753323,38.7880544 2.205391,36.6024584 1.34268552,34.2969236 C0.23750713,31.287899 -0.35,28.1299007 -0.35,25.0412719 C-0.35,10.9930381 10.9770582,-0.35301745 25,-0.349999406 C38.9980418,-0.349999406 50.35,11.0449112 50.35,25.0435557 C50.35,39.0653742 38.9749062,50.4371107 25,50.4371107 C22.1342335,50.4371107 19.2393897,49.9205398 16.4585953,48.9254239 L2.65973615,51.35 L2.50834397,51.35 C2.1966032,51.35 1.89398811,51.1857984 1.60953754,50.893047 C1.50595578,50.7393959 1.4469382,50.5640528 1.41827199,50.3652451 C1.39921455,50.2330768 1.39539486,50.130941 1.39539486,49.9331863 L1.42363131,49.7954611 L5.21753848,40.9318594 Z M4.37007432,48.8717318 L16.3811072,46.7833775 C16.6082154,46.6803356 16.7911223,46.6874236 16.9855189,46.7898971 C19.6313567,47.7252051 22.3233398,48.2150399 24.9993009,48.2150399 C37.7395452,48.2150399 48.1300954,37.850981 48.1271719,25.1178231 C48.1271719,12.369761 37.7223034,1.94676512 24.9970211,1.94676512 C12.2717388,1.94676512 1.86687033,12.369761 1.86687033,25.1178231 C1.86687033,27.9819393 2.39833619,30.82836 3.43671287,33.5077317 C4.45692002,35.9413875 5.7519501,38.0914727 7.33564123,39.9736558 C7.69780763,40.2139527 7.76526848,40.7227749 7.62519415,41.1383416 L7.61610119,41.1623669 L4.37007432,48.8717318 Z"></path>
                        </g>
                        <path d="M15,29 C13.3241525,29 12,27.6758475 12,26 C12,24.3241525 13.3241525,23 15,23 C16.6758475,23 18,24.3241525 18,26 C18,27.6758475 16.6758475,29 15,29 Z" id="Fill-2" fill="#27CCC0"></path>
                        <path d="M26,23 C27.6758475,23 29,24.3241525 29,26 C29,27.6758475 27.6758475,29 26,29 C24.3241525,29 23,27.6758475 23,26 C23,24.3241525 24.3241525,23 26,23 Z" id="Fill-3" fill="#27CCC0"></path>
                        <path d="M36,23 C37.6758475,23 39,24.3241525 39,26 C39,27.6758475 37.6758475,29 36,29 C34.3241525,29 33,27.6758475 33,26 C33,24.3241525 34.3241525,23 36,23 Z" id="Fill-4" fill="#27CCC0"></path>
                    </g>
                </g>
            </g>
        </g>
    </g>
</svg>